-------------------------------------------------------------
    Добавление многоуровнего каталога, с привязкой к меню
=============================================================

::пример создания - Категория "Белье" с 2й вложенностью
"""
Белье
    Мужское
        курта
    Женское
        курта
        сарафан
"""

http://localhost:8000/admin/catalog/catalog/add/
Создать основной раздел "Белье".
Создать подразделы:
    "Мужское" - выбрать Родительскую категорию "Белье"
    "Женское" - выбрать родительскую категорию "Белье"
Создаем для подразделов внутренние категории
    "куртака" - выбрать Родительскую категорию "Мужское"
    "куртка" - выбрать родительскую категорию "Женское"
    "сарафан" - выбрать Родительскую категорию "Женское"


::пример пунтка меню и подкатегории
"""
Магазин
    Белье
"""
http://localhost:8000/admin/menu/mainmenu/
Заходим в нужный пункт меню. Если нет - создать.
(для примера есть пункт меню: "Белье", с родительской категорией "Магазин").
Привязываем каталог:"Белье" к меню "Белье".


Структура вложенности меню должна соответствовать вложенности категории!


Готово!
=============================================================================================




